{
    "version" : 3,
    "categories" :
    [
        {
            "key" : "activity",
            "priority" : 2,
            "version" : 1,
            "status" : 0
        },
        {
            "key" : "location",
            "priority" : 1,
            "version" : 1,
            "status" : 0
        }
    ],
    "modes" :
    [
        {
            "key" : "driving",
            "category" : "activity",
            "priority" : 3,
            "version" : 1,
            "status" : 0,
            "token" : "",
            "start_time" : 0
        },
        {
            "key" : "meeting",
            "category" : "activity",
            "priority" : 2,
            "version" : 1,
            "status" : 0,
            "token" : "",
            "start_time" : 0
        },
        {
            "key" : "sleep",
            "category" : "activity",
            "priority" : 1,
            "version" : 1,
            "status" : 0,
            "token" : "",
            "start_time" : 0
        },
        {
            "key" : "home",
            "category" : "location",
            "priority" : 2,
            "version" : 1,
            "status" : 0,
            "token" : "",
            "start_time" : 0
        }
    ],
    "actions" :
    [
        {
            "key" : "com.motorola.assist.actions.ringer.sleep",
            "type" : "com.motorola.assist.actions.ringer.RingerAction",
            "status" : 0,
            "mode_key" : "sleep",
            "priority" : 0,
            "start_intent" : "DEFAULT",
            "stop_intent" : "DEFAULT",
            "config_intent" : "",
            "reset_intent" : "DEFAULT",
            "mutex_action" : true,
            "resource_list" : ["android.media.AudioManager"],
            "display_name_res" : "ringer_action_title_sleep",
            "display_desc_res" : "ringer_action_desc_sleep",
            "version" : 3,
            "package_name" : "DEFAULT"
        },
        {
            "config_filter" : {
                "build_device" : [ "obakem" ]
            },
            "key" : "com.motorola.assist.actions.lightpulse.sleep",
            "type" : "com.motorola.assist.actions.lightpulse.LightPulseAction",
            "status" : 0,
            "mode_key" : "sleep",
            "priority" : 0,
            "start_intent" : "DEFAULT",
            "stop_intent" : "DEFAULT",
            "config_intent" : "",
            "reset_intent" : "DEFAULT",
            "mutex_action" : false,
            "resource_list" : [],
            "display_name_res" : "lightpulse_action_title_sleep",
            "display_desc_res" : "lightpulse_action_desc_sleep",
            "version" : 2,
            "package_name" : "DEFAULT"
        },
        {
            "key" : "com.motorola.assist.actions.ringer.meeting",
            "type" : "com.motorola.assist.actions.ringer.RingerAction",
            "status" : 0,
            "mode_key" : "meeting",
            "priority" : 0,
            "start_intent" : "DEFAULT",
            "stop_intent" : "DEFAULT",
            "config_intent" : "",
            "reset_intent" : "DEFAULT",
            "mutex_action" : true,
            "resource_list" : ["android.media.AudioManager"],
            "display_name_res" : "ringer_action_title_meeting",
            "display_desc_res" : "ringer_action_desc_meeting",
            "version" : 3,
            "package_name" : "DEFAULT"
        },
        {
            "key" : "com.motorola.assist.actions.autosms.meeting",
            "type" : "com.motorola.assist.actions.autosms.AutoSmsAction",
            "status" : 0,
            "mode_key" : "meeting",
            "priority" : 0,
            "start_intent" : "DEFAULT",
            "stop_intent" : "DEFAULT",
            "config_intent" : "DEFAULT",
            "reset_intent" : "DEFAULT",
            "mutex_action" : true,
            "resource_list" : ["android.telephony.SmsManager"],
            "display_name_res" : "autosms_action_title_meeting",
            "display_desc_res" : "autosms_action_desc_meeting",
            "version" : 2,
            "package_name" : "DEFAULT"
        },
        {
            "key" : "com.motorola.hanashi.talktome.driving",
            "type" : "com.motorola.assist.actions.talktome.TalkToMeAction",
            "status" : 0,
            "mode_key" : "driving",
            "priority" : 0,
            "start_intent" : "intent:#Intent;action=com.motorola.hanashi.LAUNCH;B.start=true;end",
            "stop_intent" : "intent:#Intent;action=com.motorola.hanashi.LAUNCH;B.start=false;end",
            "config_intent" : "",
            "reset_intent" : "intent:#Intent;action=com.motorola.hanashi.ACTION_RESET;end",
            "mutex_action" : true,
            "resource_list" : ["android.media.AudioManager", "android.telephony.SmsManager"],
            "display_name_res" : "talktome_action_title_driving",
            "display_desc_res" : "talktome_action_desc_driving",
            "version" : 2,
            "package_name" : "DEFAULT"
        },
        {
            "key" : "com.motorola.assist.actions.resumemusic.driving",
            "type" : "com.motorola.assist.actions.resumemusic.ResumeMusicAction",
            "status" : 0,
            "mode_key" : "driving",
            "priority" : 0,
            "start_intent" : "DEFAULT",
            "stop_intent" : "DEFAULT",
            "config_intent" : "DEFAULT",
            "reset_intent" : "DEFAULT",
            "mutex_action" : false,
            "resource_list" : [],
            "display_name_res" : "resumemusic_action_title_driving",
            "display_desc_res" : "resumemusic_action_desc_driving",
            "version" : 2,
            "package_name" : "DEFAULT"
        },
        {
            "key" : "com.motorola.hanashi.talktome.home",
            "type" : "com.motorola.assist.actions.talktome.TalkToMeAction",
            "status" : 0,
            "mode_key" : "home",
            "priority" : 0,
            "start_intent" : "intent:#Intent;action=com.motorola.hanashi.LAUNCH;B.start=true;end",
            "stop_intent" : "intent:#Intent;action=com.motorola.hanashi.LAUNCH;B.start=false;end",
            "config_intent" : "",
            "reset_intent" : "intent:#Intent;action=com.motorola.hanashi.ACTION_RESET;end",
            "mutex_action" : true,
            "resource_list" : ["android.media.AudioManager", "android.telephony.SmsManager"],
            "display_name_res" : "talktome_action_title_home",
            "display_desc_res" : "talktome_action_desc_home",
            "version" : 2,
            "package_name" : "DEFAULT"
        }
    ]
}